{
  "collection": "@nestjs/schematics",
  "sourceRoot": "src",
  "compilerOptions": {
    "plugins": [
      {
        "name": "@nestjs/swagger",
        "options": {
          "dtoFileNameSuffix": [
            ".dto.ts"
          ]
        }
      }
    ]
  }
}

